{
  "trademarkList": [
    {
      "tmId": 1,
      "tmName": "小米"
    },
    {
      "tmId": 2,
      "tmName": "苹果"
    },
    {
      "tmId": 21840,
      "tmName": "yes"
    },
    {
      "tmId": 3,
      "tmName": "华为"
    },
    {
      "tmId": 27,
      "tmName": "戴尔"
    },
    {
      "tmId": 26,
      "tmName": "海信"
    },
    {
      "tmId": 22363,
      "tmName": "123"
    },
    {
      "tmId": 22425,
      "tmName": "我的"
    },
    {
      "tmId": 4,
      "tmName": "尚硅谷"
    },
    {
      "tmId": 6,
      "tmName": "VIVO"
    }
  ],
  "attrsList": [
    {
      "attrId": 106,
      "attrValueList": [
        "安卓手机",
        "苹果手机"
      ],
      "attrName": "手机系统"
    },
    {
      "attrId": 24,
      "attrValueList": [
        "128G",
        "64G",
        "256G",
        "1T",
        "32G",
        "512G"
      ],
      "attrName": "机身内存"
    },
    {
      "attrId": 107,
      "attrValueList": [
        "1200mAh以下",
        "1200mAh到3000mAh",
        "3000mAh以上"
      ],
      "attrName": "电池容量"
    },
    {
      "attrId": 23,
      "attrValueList": [
        "8G",
        "4G",
        "6G",
        "128G",
        "12G",
        "256G",
        "3G"
      ],
      "attrName": "运行内存"
    },
    {
      "attrId": 111,
      "attrValueList": [
        "麒麟990",
        "骁龙730G",
        "骁龙439",
        "5G骁龙768G",
        "骁龙845"
      ],
      "attrName": "CPU型号"
    },
    {
      "attrId": 112,
      "attrValueList": [
        "6.95英寸及以上",
        "6.0-6.24英寸",
        "6.55-6.64英寸",
        " 6.75-6.84英寸",
        "6.85-6.94英寸"
      ],
      "attrName": "屏幕尺寸"
    },
    {
      "attrId": 7292,
      "attrValueList": [
        "1200mAh以下",
        "1200mAh到3000mAh"
      ],
      "attrName": "电池容量"
    },
    {
      "attrId": 7543,
      "attrValueList": [
        "33"
      ],
      "attrName": "22"
    },
    {
      "attrId": 6485,
      "attrValueList": [
        "我不爱你",
        "我爱你"
      ],
      "attrName": "万道成"
    },
    {
      "attrId": 7515,
      "attrValueList": [
        "头子"
      ],
      "attrName": "杀杀杀"
    }
  ],
  "goodsList": [
    {
      "id": 4,
      "defaultImg": "http://47.93.148.192:8080/group1/M00/00/01/rBHu8l-rgJqAHPnoAAF9hoDNfsc505.jpg",
      "title": "Redmi 10X 4G Helio G85游戏芯 4GB+128GB 冰雾白 游戏智能手机 小米 红米",
      "price": 999,
      "createTime": null,
      "tmId": null,
      "tmName": null,
      "category1Id": null,
      "category1Name": null,
      "category2Id": null,
      "category2Name": null,
      "category3Id": null,
      "category3Name": null,
      "hotScore": 0,
      "attrs": null
    },
    {
      "id": 12,
      "defaultImg": "http://47.93.148.192:8080/group1/M00/00/02/rBHu8l-rgfWAVRWzAABUiOmA0ic932.jpg",
      "title": "Apple iPhone 12 (A2404) 128GB 黑色 支持移动联通电信5G 双卡双待手机",
      "price": 9197,
      "createTime": null,
      "tmId": null,
      "tmName": null,
      "category1Id": null,
      "category1Name": null,
      "category2Id": null,
      "category2Name": null,
      "category3Id": null,
      "category3Name": null,
      "hotScore": 0,
      "attrs": null
    },
    {
      "id": 2,
      "defaultImg": "http://47.93.148.192:8080/group1/M00/00/01/rBHu8l-rfvmAcbl2AAFopp2WGBQ404.jpg",
      "title": "小米10 至尊纪念版 双模5G 骁龙865 120W快充 12GB+256GB 陶瓷黑 游戏手机",
      "price": 6999,
      "createTime": null,
      "tmId": null,
      "tmName": null,
      "category1Id": null,
      "category1Name": null,
      "category2Id": null,
      "category2Name": null,
      "category3Id": null,
      "category3Name": null,
      "hotScore": 0,
      "attrs": null
    },
    {
      "id": 8,
      "defaultImg": "http://47.93.148.192:8080/group1/M00/00/02/rBHu8l-rgfWAVRWzAABUiOmA0ic932.jpg",
      "title": "Apple iPhone 12 (A2404) 64GB 黑色 支持移动联通电信5G 双卡双待手机",
      "price": 8197,
      "createTime": null,
      "tmId": null,
      "tmName": null,
      "category1Id": null,
      "category1Name": null,
      "category2Id": null,
      "category2Name": null,
      "category3Id": null,
      "category3Name": null,
      "hotScore": 0,
      "attrs": null
    },
    {
      "id": 18,
      "defaultImg": "http://47.93.148.192:8080/group1/M00/02/DA/rBHu8mGxPb-AQOTXAAAWgQNuXx0990.jpg",
      "title": "vivo S10 Pro 5G手机 12GB+256GB 绮光焕彩  光致变色工艺 6nm旗舰芯片",
      "price": 2323,
      "createTime": null,
      "tmId": null,
      "tmName": null,
      "category1Id": null,
      "category1Name": null,
      "category2Id": null,
      "category2Name": null,
      "category3Id": null,
      "category3Name": null,
      "hotScore": 0,
      "attrs": null
    },
    {
      "id": 11,
      "defaultImg": "http://47.93.148.192:8080/group1/M00/00/02/rBHu8l-rgfWASR1YAADsOUYB-2g312.jpg",
      "title": "Apple iPhone 12 (A2404) 64GB 白色 支持移动联通电信5G 双卡双待手机",
      "price": 8197,
      "createTime": null,
      "tmId": null,
      "tmName": null,
      "category1Id": null,
      "category1Name": null,
      "category2Id": null,
      "category2Name": null,
      "category3Id": null,
      "category3Name": null,
      "hotScore": 0,
      "attrs": null
    },
    {
      "id": 1,
      "defaultImg": "http://47.93.148.192:8080/group1/M00/00/01/rBHu8l-rfvmAIpgZAAIvrX6L9fo612.jpg",
      "title": "小米10 至尊纪念版 双模5G 骁龙865  120W快充 8GB+128GB 陶瓷黑 游戏手机",
      "price": 5999,
      "createTime": null,
      "tmId": null,
      "tmName": null,
      "category1Id": null,
      "category1Name": null,
      "category2Id": null,
      "category2Name": null,
      "category3Id": null,
      "category3Name": null,
      "hotScore": 0,
      "attrs": null
    },
    {
      "id": 3953,
      "defaultImg": "http://47.93.148.192:8080/group1/M00/07/44/rBHu8mM9YBKAW4QIAAAhCGATWDw624.jpg",
      "title": "小米洗衣机",
      "price": 1999,
      "createTime": null,
      "tmId": null,
      "tmName": null,
      "category1Id": null,
      "category1Name": null,
      "category2Id": null,
      "category2Name": null,
      "category3Id": null,
      "category3Name": null,
      "hotScore": 0,
      "attrs": null
    },
    {
      "id": 9,
      "defaultImg": "http://47.93.148.192:8080/group1/M00/00/02/rBHu8l-rgfWAJllcAAEY0AkXL8M782.jpg",
      "title": "Apple iPhone 12 (A2404) 64GB 红色 支持移动联通电信5G 双卡双待手机",
      "price": 8197,
      "createTime": null,
      "tmId": null,
      "tmName": null,
      "category1Id": null,
      "category1Name": null,
      "category2Id": null,
      "category2Name": null,
      "category3Id": null,
      "category3Name": null,
      "hotScore": 0,
      "attrs": null
    },
    {
      "id": 6,
      "defaultImg": "http://47.93.148.192:8080/group1/M00/00/01/rBHu8l-rgJqAHPnoAAF9hoDNfsc505.jpg",
      "title": "Redmi 10X 4G Helio G85游戏芯  8GB+128GB 冰雾白 游戏智能手机 小米 红米",
      "price": 1299,
      "createTime": null,
      "tmId": null,
      "tmName": null,
      "category1Id": null,
      "category1Name": null,
      "category2Id": null,
      "category2Name": null,
      "category3Id": null,
      "category3Name": null,
      "hotScore": 0,
      "attrs": null
    }
  ],
  "total": 138,
  "pageSize": 10,
  "pageNo": 1,
  "totalPages": 14
}